<?xml version="1.0" encoding="UTF-8"?>
<testng-results ignored="0" total="20" passed="18" failed="2" skipped="0">
  <reporter-output>
  </reporter-output>
  <suite started-at="2022-05-05T17:43:00 IST" name="Suite" finished-at="2022-05-05T17:53:31 IST" duration-ms="630913">
    <groups>
    </groups>
    <test started-at="2022-05-05T17:43:00 IST" name="UserLogin" finished-at="2022-05-05T17:43:31 IST" duration-ms="31670">
      <class name="Testv2.UserLoginTest">
        <test-method is-config="true" signature="BeforeTest()[pri:0, instance:Testv2.UserLoginTest@677349fb]" started-at="2022-05-05T17:43:00 IST" name="BeforeTest" finished-at="2022-05-05T17:43:05 IST" duration-ms="4917" status="PASS">
          <reporter-output>
          </reporter-output>
        </test-method> <!-- BeforeTest -->
        <test-method signature="UserLogin()[pri:1, instance:Testv2.UserLoginTest@677349fb]" started-at="2022-05-05T17:43:05 IST" name="UserLogin" finished-at="2022-05-05T17:43:28 IST" duration-ms="23052" status="PASS">
          <reporter-output>
          </reporter-output>
        </test-method> <!-- UserLogin -->
        <test-method signature="UserLogout()[pri:2, instance:Testv2.UserLoginTest@677349fb]" started-at="2022-05-05T17:43:28 IST" name="UserLogout" finished-at="2022-05-05T17:43:31 IST" duration-ms="3458" status="PASS">
          <reporter-output>
          </reporter-output>
        </test-method> <!-- UserLogout -->
        <test-method is-config="true" signature="AfterTest()[pri:0, instance:Testv2.UserLoginTest@677349fb]" started-at="2022-05-05T17:43:31 IST" name="AfterTest" finished-at="2022-05-05T17:43:31 IST" duration-ms="158" status="PASS">
          <reporter-output>
          </reporter-output>
        </test-method> <!-- AfterTest -->
      </class> <!-- Testv2.UserLoginTest -->
    </test> <!-- UserLogin -->
    <test started-at="2022-05-05T17:43:32 IST" name="Alarms" finished-at="2022-05-05T17:46:13 IST" duration-ms="160550">
      <class name="Testv2.AlarmsTest">
        <test-method is-config="true" signature="BeforeTest()[pri:0, instance:Testv2.AlarmsTest@693f2213]" started-at="2022-05-05T17:43:32 IST" name="BeforeTest" finished-at="2022-05-05T17:43:36 IST" duration-ms="3681" status="PASS">
          <reporter-output>
          </reporter-output>
        </test-method> <!-- BeforeTest -->
        <test-method signature="AlarmTabTest()[pri:1, instance:Testv2.AlarmsTest@693f2213]" started-at="2022-05-05T17:43:36 IST" name="AlarmTabTest" finished-at="2022-05-05T17:44:14 IST" duration-ms="38763" status="PASS">
          <reporter-output>
          </reporter-output>
        </test-method> <!-- AlarmTabTest -->
        <test-method signature="AlarmClearFilterTest()[pri:2, instance:Testv2.AlarmsTest@693f2213]" started-at="2022-05-05T17:44:14 IST" name="AlarmClearFilterTest" finished-at="2022-05-05T17:44:21 IST" duration-ms="6629" status="PASS">
          <reporter-output>
          </reporter-output>
        </test-method> <!-- AlarmClearFilterTest -->
        <test-method signature="AlarmSelectSeverityFilterTest()[pri:3, instance:Testv2.AlarmsTest@693f2213]" started-at="2022-05-05T17:44:21 IST" name="AlarmSelectSeverityFilterTest" finished-at="2022-05-05T17:44:31 IST" duration-ms="9731" status="PASS">
          <reporter-output>
          </reporter-output>
        </test-method> <!-- AlarmSelectSeverityFilterTest -->
        <test-method signature="AlarmSearchAlarmTest()[pri:4, instance:Testv2.AlarmsTest@693f2213]" started-at="2022-05-05T17:44:31 IST" name="AlarmSearchAlarmTest" finished-at="2022-05-05T17:44:43 IST" duration-ms="12122" status="PASS">
          <reporter-output>
          </reporter-output>
        </test-method> <!-- AlarmSearchAlarmTest -->
        <test-method signature="AlarmFixedAlarmTest()[pri:5, instance:Testv2.AlarmsTest@693f2213]" started-at="2022-05-05T17:44:43 IST" name="AlarmFixedAlarmTest" finished-at="2022-05-05T17:44:54 IST" duration-ms="10911" status="PASS">
          <reporter-output>
          </reporter-output>
        </test-method> <!-- AlarmFixedAlarmTest -->
        <test-method signature="AlarmFalseAlarmTest()[pri:6, instance:Testv2.AlarmsTest@693f2213]" started-at="2022-05-05T17:44:54 IST" name="AlarmFalseAlarmTest" finished-at="2022-05-05T17:45:13 IST" duration-ms="19434" status="PASS">
          <reporter-output>
          </reporter-output>
        </test-method> <!-- AlarmFalseAlarmTest -->
        <test-method signature="AlarmColorTest()[pri:7, instance:Testv2.AlarmsTest@693f2213]" started-at="2022-05-05T17:45:13 IST" name="AlarmColorTest" finished-at="2022-05-05T17:45:24 IST" duration-ms="10305" status="PASS">
          <reporter-output>
          </reporter-output>
        </test-method> <!-- AlarmColorTest -->
        <test-method signature="AlarmAgeSearchAlarmTest()[pri:8, instance:Testv2.AlarmsTest@693f2213]" started-at="2022-05-05T17:45:24 IST" name="AlarmAgeSearchAlarmTest" finished-at="2022-05-05T17:46:12 IST" duration-ms="48840" status="PASS">
          <reporter-output>
          </reporter-output>
        </test-method> <!-- AlarmAgeSearchAlarmTest -->
        <test-method is-config="true" signature="AfterTest()[pri:0, instance:Testv2.AlarmsTest@693f2213]" started-at="2022-05-05T17:46:12 IST" name="AfterTest" finished-at="2022-05-05T17:46:13 IST" duration-ms="124" status="PASS">
          <reporter-output>
          </reporter-output>
        </test-method> <!-- AfterTest -->
      </class> <!-- Testv2.AlarmsTest -->
    </test> <!-- Alarms -->
    <test started-at="2022-05-05T17:46:13 IST" name="Rules" finished-at="2022-05-05T17:49:11 IST" duration-ms="178865">
      <class name="Testv2.RulesTest">
        <test-method is-config="true" signature="BeforeTest()[pri:0, instance:Testv2.RulesTest@159ac15f]" started-at="2022-05-05T17:46:13 IST" name="BeforeTest" finished-at="2022-05-05T17:46:16 IST" duration-ms="3322" status="PASS">
          <reporter-output>
          </reporter-output>
        </test-method> <!-- BeforeTest -->
        <test-method signature="SensorRulesCreateTest()[pri:1, instance:Testv2.RulesTest@159ac15f]" started-at="2022-05-05T17:46:16 IST" name="SensorRulesCreateTest" finished-at="2022-05-05T17:47:21 IST" duration-ms="64883" status="PASS">
          <reporter-output>
          </reporter-output>
        </test-method> <!-- SensorRulesCreateTest -->
        <test-method signature="SensorRulesDeleteTest()[pri:2, instance:Testv2.RulesTest@159ac15f]" started-at="2022-05-05T17:47:21 IST" name="SensorRulesDeleteTest" finished-at="2022-05-05T17:47:41 IST" duration-ms="20478" status="FAIL">
          <exception class="org.openqa.selenium.ElementClickInterceptedException">
            <message>
              <![CDATA[element click intercepted: Element <button class="MuiButtonBase-root MuiIconButton-root Mui-disabled MuiIconButton-sizeSmall Mui-disabled" tabindex="-1" type="button" disabled="" aria-label="delete">...</button> is not clickable at point (1226, 269). Other element would receive the click: <span title="Delete" class="">...</span>
  (Session info: chrome=101.0.4951.41)
Build info: version: '4.1.0', revision: '87802e897b'
System info: host: 'amey306-ThinkPad-L450', ip: '127.0.1.1', os.name: 'Linux', os.arch: 'amd64', os.version: '5.13.0-40-generic', java.version: '11.0.15'
Driver info: org.openqa.selenium.chrome.ChromeDriver
Command: [7aa774f94f2e22763648fa580e84ef91, clickElement {id=416cb04d-3fbc-41e1-a5d5-b0ea1048525c}]
Capabilities {acceptInsecureCerts: false, browserName: chrome, browserVersion: 101.0.4951.41, chrome: {chromedriverVersion: 101.0.4951.41 (93c720db8323..., userDataDir: /tmp/.com.google.Chrome.opgTks}, goog:chromeOptions: {debuggerAddress: localhost:42955}, javascriptEnabled: true, networkConnectionEnabled: false, pageLoadStrategy: eager, platform: LINUX, platformName: LINUX, proxy: Proxy(), se:cdp: ws://localhost:42955/devtoo..., se:cdpVersion: 101.0.4951.41, setWindowRect: true, strictFileInteractability: false, timeouts: {implicit: 0, pageLoad: 300000, script: 30000}, unhandledPromptBehavior: dismiss and notify, webauthn:extension:credBlob: true, webauthn:extension:largeBlob: true, webauthn:virtualAuthenticators: true}
Element: [[ChromeDriver: chrome on LINUX (7aa774f94f2e22763648fa580e84ef91)] -> xpath: //tbody/tr[1]/td[4]/span[3]/button[1]]
Session ID: 7aa774f94f2e22763648fa580e84ef91]]>
            </message>
            <full-stacktrace>
              <![CDATA[org.openqa.selenium.ElementClickInterceptedException: element click intercepted: Element <button class="MuiButtonBase-root MuiIconButton-root Mui-disabled MuiIconButton-sizeSmall Mui-disabled" tabindex="-1" type="button" disabled="" aria-label="delete">...</button> is not clickable at point (1226, 269). Other element would receive the click: <span title="Delete" class="">...</span>
  (Session info: chrome=101.0.4951.41)
Build info: version: '4.1.0', revision: '87802e897b'
System info: host: 'amey306-ThinkPad-L450', ip: '127.0.1.1', os.name: 'Linux', os.arch: 'amd64', os.version: '5.13.0-40-generic', java.version: '11.0.15'
Driver info: org.openqa.selenium.chrome.ChromeDriver
Command: [7aa774f94f2e22763648fa580e84ef91, clickElement {id=416cb04d-3fbc-41e1-a5d5-b0ea1048525c}]
Capabilities {acceptInsecureCerts: false, browserName: chrome, browserVersion: 101.0.4951.41, chrome: {chromedriverVersion: 101.0.4951.41 (93c720db8323..., userDataDir: /tmp/.com.google.Chrome.opgTks}, goog:chromeOptions: {debuggerAddress: localhost:42955}, javascriptEnabled: true, networkConnectionEnabled: false, pageLoadStrategy: eager, platform: LINUX, platformName: LINUX, proxy: Proxy(), se:cdp: ws://localhost:42955/devtoo..., se:cdpVersion: 101.0.4951.41, setWindowRect: true, strictFileInteractability: false, timeouts: {implicit: 0, pageLoad: 300000, script: 30000}, unhandledPromptBehavior: dismiss and notify, webauthn:extension:credBlob: true, webauthn:extension:largeBlob: true, webauthn:virtualAuthenticators: true}
Element: [[ChromeDriver: chrome on LINUX (7aa774f94f2e22763648fa580e84ef91)] -> xpath: //tbody/tr[1]/td[4]/span[3]/button[1]]
Session ID: 7aa774f94f2e22763648fa580e84ef91
at java.base/jdk.internal.reflect.NativeConstructorAccessorImpl.newInstance0(Native Method)
at java.base/jdk.internal.reflect.NativeConstructorAccessorImpl.newInstance(NativeConstructorAccessorImpl.java:62)
at java.base/jdk.internal.reflect.DelegatingConstructorAccessorImpl.newInstance(DelegatingConstructorAccessorImpl.java:45)
at java.base/java.lang.reflect.Constructor.newInstance(Constructor.java:490)
at org.openqa.selenium.remote.codec.w3c.W3CHttpResponseCodec.createException(W3CHttpResponseCodec.java:200)
at org.openqa.selenium.remote.codec.w3c.W3CHttpResponseCodec.decode(W3CHttpResponseCodec.java:133)
at org.openqa.selenium.remote.codec.w3c.W3CHttpResponseCodec.decode(W3CHttpResponseCodec.java:53)
at org.openqa.selenium.remote.HttpCommandExecutor.execute(HttpCommandExecutor.java:184)
at org.openqa.selenium.remote.service.DriverCommandExecutor.invokeExecute(DriverCommandExecutor.java:164)
at org.openqa.selenium.remote.service.DriverCommandExecutor.execute(DriverCommandExecutor.java:139)
at org.openqa.selenium.remote.RemoteWebDriver.execute(RemoteWebDriver.java:559)
at org.openqa.selenium.remote.RemoteWebElement.execute(RemoteWebElement.java:251)
at org.openqa.selenium.remote.RemoteWebElement.click(RemoteWebElement.java:77)
at jdk.internal.reflect.GeneratedMethodAccessor19.invoke(Unknown Source)
at java.base/jdk.internal.reflect.DelegatingMethodAccessorImpl.invoke(DelegatingMethodAccessorImpl.java:43)
at java.base/java.lang.reflect.Method.invoke(Method.java:566)
at org.openqa.selenium.support.pagefactory.internal.LocatingElementHandler.invoke(LocatingElementHandler.java:52)
at com.sun.proxy.$Proxy49.click(Unknown Source)
at PageObjects.RulesPage.getDeleteSearchRule(RulesPage.java:378)
at Testv2.RulesTest.SensorRulesDeleteTest(RulesTest.java:157)
at java.base/jdk.internal.reflect.NativeMethodAccessorImpl.invoke0(Native Method)
at java.base/jdk.internal.reflect.NativeMethodAccessorImpl.invoke(NativeMethodAccessorImpl.java:62)
at java.base/jdk.internal.reflect.DelegatingMethodAccessorImpl.invoke(DelegatingMethodAccessorImpl.java:43)
at java.base/java.lang.reflect.Method.invoke(Method.java:566)
at org.testng.internal.MethodInvocationHelper.invokeMethod(MethodInvocationHelper.java:133)
at org.testng.internal.TestInvoker.invokeMethod(TestInvoker.java:598)
at org.testng.internal.TestInvoker.invokeTestMethod(TestInvoker.java:173)
at org.testng.internal.MethodRunner.runInSequence(MethodRunner.java:46)
at org.testng.internal.TestInvoker$MethodInvocationAgent.invoke(TestInvoker.java:824)
at org.testng.internal.TestInvoker.invokeTestMethods(TestInvoker.java:146)
at org.testng.internal.TestMethodWorker.invokeTestMethods(TestMethodWorker.java:146)
at org.testng.internal.TestMethodWorker.run(TestMethodWorker.java:128)
at java.base/java.util.ArrayList.forEach(ArrayList.java:1541)
at org.testng.TestRunner.privateRun(TestRunner.java:794)
at org.testng.TestRunner.run(TestRunner.java:596)
at org.testng.SuiteRunner.runTest(SuiteRunner.java:377)
at org.testng.SuiteRunner.runSequentially(SuiteRunner.java:371)
at org.testng.SuiteRunner.privateRun(SuiteRunner.java:332)
at org.testng.SuiteRunner.run(SuiteRunner.java:276)
at org.testng.SuiteRunnerWorker.runSuite(SuiteRunnerWorker.java:53)
at org.testng.SuiteRunnerWorker.run(SuiteRunnerWorker.java:96)
at org.testng.TestNG.runSuitesSequentially(TestNG.java:1212)
at org.testng.TestNG.runSuitesLocally(TestNG.java:1134)
at org.testng.TestNG.runSuites(TestNG.java:1063)
at org.testng.TestNG.run(TestNG.java:1031)
at org.apache.maven.surefire.testng.TestNGExecutor.run(TestNGExecutor.java:283)
at org.apache.maven.surefire.testng.TestNGXmlTestSuite.execute(TestNGXmlTestSuite.java:75)
at org.apache.maven.surefire.testng.TestNGProvider.invoke(TestNGProvider.java:120)
at java.base/jdk.internal.reflect.NativeMethodAccessorImpl.invoke0(Native Method)
at java.base/jdk.internal.reflect.NativeMethodAccessorImpl.invoke(NativeMethodAccessorImpl.java:62)
at java.base/jdk.internal.reflect.DelegatingMethodAccessorImpl.invoke(DelegatingMethodAccessorImpl.java:43)
at java.base/java.lang.reflect.Method.invoke(Method.java:566)
at org.apache.maven.surefire.util.ReflectionUtils.invokeMethodWithArray2(ReflectionUtils.java:186)
at org.apache.maven.surefire.booter.ProviderFactory$ProviderProxy.invoke(ProviderFactory.java:161)
at org.apache.maven.surefire.booter.ProviderFactory.invokeProvider(ProviderFactory.java:84)
at org.apache.maven.plugin.surefire.InPluginVMSurefireStarter.runSuitesInProcess(InPluginVMSurefireStarter.java:87)
at org.apache.maven.plugin.surefire.AbstractSurefireMojo.executeProvider(AbstractSurefireMojo.java:1144)
at org.apache.maven.plugin.surefire.AbstractSurefireMojo.executeAfterPreconditionsChecked(AbstractSurefireMojo.java:1002)
at org.apache.maven.plugin.surefire.AbstractSurefireMojo.execute(AbstractSurefireMojo.java:848)
at org.apache.maven.plugin.DefaultBuildPluginManager.executeMojo(DefaultBuildPluginManager.java:137)
at org.apache.maven.lifecycle.internal.MojoExecutor.execute(MojoExecutor.java:210)
at org.apache.maven.lifecycle.internal.MojoExecutor.execute(MojoExecutor.java:156)
at org.apache.maven.lifecycle.internal.MojoExecutor.execute(MojoExecutor.java:148)
at org.apache.maven.lifecycle.internal.LifecycleModuleBuilder.buildProject(LifecycleModuleBuilder.java:117)
at org.apache.maven.lifecycle.internal.LifecycleModuleBuilder.buildProject(LifecycleModuleBuilder.java:81)
at org.apache.maven.lifecycle.internal.builder.singlethreaded.SingleThreadedBuilder.build(SingleThreadedBuilder.java:56)
at org.apache.maven.lifecycle.internal.LifecycleStarter.execute(LifecycleStarter.java:128)
at org.apache.maven.DefaultMaven.doExecute(DefaultMaven.java:305)
at org.apache.maven.DefaultMaven.doExecute(DefaultMaven.java:192)
at org.apache.maven.DefaultMaven.execute(DefaultMaven.java:105)
at org.apache.maven.cli.MavenCli.execute(MavenCli.java:957)
at org.apache.maven.cli.MavenCli.doMain(MavenCli.java:289)
at org.apache.maven.cli.MavenCli.main(MavenCli.java:193)
at java.base/jdk.internal.reflect.NativeMethodAccessorImpl.invoke0(Native Method)
at java.base/jdk.internal.reflect.NativeMethodAccessorImpl.invoke(NativeMethodAccessorImpl.java:62)
at java.base/jdk.internal.reflect.DelegatingMethodAccessorImpl.invoke(DelegatingMethodAccessorImpl.java:43)
at java.base/java.lang.reflect.Method.invoke(Method.java:566)
at org.codehaus.plexus.classworlds.launcher.Launcher.launchEnhanced(Launcher.java:282)
at org.codehaus.plexus.classworlds.launcher.Launcher.launch(Launcher.java:225)
at org.codehaus.plexus.classworlds.launcher.Launcher.mainWithExitCode(Launcher.java:406)
at org.codehaus.plexus.classworlds.launcher.Launcher.main(Launcher.java:347)
]]>
            </full-stacktrace>
          </exception> <!-- org.openqa.selenium.ElementClickInterceptedException -->
          <reporter-output>
          </reporter-output>
        </test-method> <!-- SensorRulesDeleteTest -->
        <test-method signature="SensorRulesUpdateTest()[pri:3, instance:Testv2.RulesTest@159ac15f]" started-at="2022-05-05T17:47:41 IST" name="SensorRulesUpdateTest" finished-at="2022-05-05T17:49:11 IST" duration-ms="90051" status="FAIL">
          <exception class="org.openqa.selenium.NoSuchElementException">
            <message>
              <![CDATA[no such element: Unable to locate element: {"method":"xpath","selector":"//input[@name='email']"}
  (Session info: chrome=101.0.4951.41)
For documentation on this error, please visit: https://selenium.dev/exceptions/#no_such_element
Build info: version: '4.1.0', revision: '87802e897b'
System info: host: 'amey306-ThinkPad-L450', ip: '127.0.1.1', os.name: 'Linux', os.arch: 'amd64', os.version: '5.13.0-40-generic', java.version: '11.0.15'
Driver info: org.openqa.selenium.chrome.ChromeDriver
Command: [7aa774f94f2e22763648fa580e84ef91, findElement {using=xpath, value=//input[@name='email']}]
Capabilities {acceptInsecureCerts: false, browserName: chrome, browserVersion: 101.0.4951.41, chrome: {chromedriverVersion: 101.0.4951.41 (93c720db8323..., userDataDir: /tmp/.com.google.Chrome.opgTks}, goog:chromeOptions: {debuggerAddress: localhost:42955}, javascriptEnabled: true, networkConnectionEnabled: false, pageLoadStrategy: eager, platform: LINUX, platformName: LINUX, proxy: Proxy(), se:cdp: ws://localhost:42955/devtoo..., se:cdpVersion: 101.0.4951.41, setWindowRect: true, strictFileInteractability: false, timeouts: {implicit: 0, pageLoad: 300000, script: 30000}, unhandledPromptBehavior: dismiss and notify, webauthn:extension:credBlob: true, webauthn:extension:largeBlob: true, webauthn:virtualAuthenticators: true}
Session ID: 7aa774f94f2e22763648fa580e84ef91]]>
            </message>
            <full-stacktrace>
              <![CDATA[org.openqa.selenium.NoSuchElementException: no such element: Unable to locate element: {"method":"xpath","selector":"//input[@name='email']"}
  (Session info: chrome=101.0.4951.41)
For documentation on this error, please visit: https://selenium.dev/exceptions/#no_such_element
Build info: version: '4.1.0', revision: '87802e897b'
System info: host: 'amey306-ThinkPad-L450', ip: '127.0.1.1', os.name: 'Linux', os.arch: 'amd64', os.version: '5.13.0-40-generic', java.version: '11.0.15'
Driver info: org.openqa.selenium.chrome.ChromeDriver
Command: [7aa774f94f2e22763648fa580e84ef91, findElement {using=xpath, value=//input[@name='email']}]
Capabilities {acceptInsecureCerts: false, browserName: chrome, browserVersion: 101.0.4951.41, chrome: {chromedriverVersion: 101.0.4951.41 (93c720db8323..., userDataDir: /tmp/.com.google.Chrome.opgTks}, goog:chromeOptions: {debuggerAddress: localhost:42955}, javascriptEnabled: true, networkConnectionEnabled: false, pageLoadStrategy: eager, platform: LINUX, platformName: LINUX, proxy: Proxy(), se:cdp: ws://localhost:42955/devtoo..., se:cdpVersion: 101.0.4951.41, setWindowRect: true, strictFileInteractability: false, timeouts: {implicit: 0, pageLoad: 300000, script: 30000}, unhandledPromptBehavior: dismiss and notify, webauthn:extension:credBlob: true, webauthn:extension:largeBlob: true, webauthn:virtualAuthenticators: true}
Session ID: 7aa774f94f2e22763648fa580e84ef91
at java.base/jdk.internal.reflect.NativeConstructorAccessorImpl.newInstance0(Native Method)
at java.base/jdk.internal.reflect.NativeConstructorAccessorImpl.newInstance(NativeConstructorAccessorImpl.java:62)
at java.base/jdk.internal.reflect.DelegatingConstructorAccessorImpl.newInstance(DelegatingConstructorAccessorImpl.java:45)
at java.base/java.lang.reflect.Constructor.newInstance(Constructor.java:490)
at org.openqa.selenium.remote.codec.w3c.W3CHttpResponseCodec.createException(W3CHttpResponseCodec.java:200)
at org.openqa.selenium.remote.codec.w3c.W3CHttpResponseCodec.decode(W3CHttpResponseCodec.java:133)
at org.openqa.selenium.remote.codec.w3c.W3CHttpResponseCodec.decode(W3CHttpResponseCodec.java:53)
at org.openqa.selenium.remote.HttpCommandExecutor.execute(HttpCommandExecutor.java:184)
at org.openqa.selenium.remote.service.DriverCommandExecutor.invokeExecute(DriverCommandExecutor.java:164)
at org.openqa.selenium.remote.service.DriverCommandExecutor.execute(DriverCommandExecutor.java:139)
at org.openqa.selenium.remote.RemoteWebDriver.execute(RemoteWebDriver.java:559)
at org.openqa.selenium.remote.ElementLocation$ElementFinder$2.findElement(ElementLocation.java:162)
at org.openqa.selenium.remote.ElementLocation.findElement(ElementLocation.java:60)
at org.openqa.selenium.remote.RemoteWebDriver.findElement(RemoteWebDriver.java:383)
at org.openqa.selenium.remote.RemoteWebDriver.findElement(RemoteWebDriver.java:375)
at org.openqa.selenium.support.pagefactory.DefaultElementLocator.findElement(DefaultElementLocator.java:70)
at org.openqa.selenium.support.pagefactory.internal.LocatingElementHandler.invoke(LocatingElementHandler.java:39)
at com.sun.proxy.$Proxy49.clear(Unknown Source)
at PageObjects.LoginPage.getEmailAddress(LoginPage.java:54)
at Testv2.RulesTest.LoginTest(RulesTest.java:30)
at Testv2.RulesTest.SensorRulesUpdateTest(RulesTest.java:176)
at java.base/jdk.internal.reflect.NativeMethodAccessorImpl.invoke0(Native Method)
at java.base/jdk.internal.reflect.NativeMethodAccessorImpl.invoke(NativeMethodAccessorImpl.java:62)
at java.base/jdk.internal.reflect.DelegatingMethodAccessorImpl.invoke(DelegatingMethodAccessorImpl.java:43)
at java.base/java.lang.reflect.Method.invoke(Method.java:566)
at org.testng.internal.MethodInvocationHelper.invokeMethod(MethodInvocationHelper.java:133)
at org.testng.internal.TestInvoker.invokeMethod(TestInvoker.java:598)
at org.testng.internal.TestInvoker.invokeTestMethod(TestInvoker.java:173)
at org.testng.internal.MethodRunner.runInSequence(MethodRunner.java:46)
at org.testng.internal.TestInvoker$MethodInvocationAgent.invoke(TestInvoker.java:824)
at org.testng.internal.TestInvoker.invokeTestMethods(TestInvoker.java:146)
at org.testng.internal.TestMethodWorker.invokeTestMethods(TestMethodWorker.java:146)
at org.testng.internal.TestMethodWorker.run(TestMethodWorker.java:128)
at java.base/java.util.ArrayList.forEach(ArrayList.java:1541)
at org.testng.TestRunner.privateRun(TestRunner.java:794)
at org.testng.TestRunner.run(TestRunner.java:596)
at org.testng.SuiteRunner.runTest(SuiteRunner.java:377)
at org.testng.SuiteRunner.runSequentially(SuiteRunner.java:371)
at org.testng.SuiteRunner.privateRun(SuiteRunner.java:332)
at org.testng.SuiteRunner.run(SuiteRunner.java:276)
at org.testng.SuiteRunnerWorker.runSuite(SuiteRunnerWorker.java:53)
at org.testng.SuiteRunnerWorker.run(SuiteRunnerWorker.java:96)
at org.testng.TestNG.runSuitesSequentially(TestNG.java:1212)
at org.testng.TestNG.runSuitesLocally(TestNG.java:1134)
at org.testng.TestNG.runSuites(TestNG.java:1063)
at org.testng.TestNG.run(TestNG.java:1031)
at org.apache.maven.surefire.testng.TestNGExecutor.run(TestNGExecutor.java:283)
at org.apache.maven.surefire.testng.TestNGXmlTestSuite.execute(TestNGXmlTestSuite.java:75)
at org.apache.maven.surefire.testng.TestNGProvider.invoke(TestNGProvider.java:120)
at java.base/jdk.internal.reflect.NativeMethodAccessorImpl.invoke0(Native Method)
at java.base/jdk.internal.reflect.NativeMethodAccessorImpl.invoke(NativeMethodAccessorImpl.java:62)
at java.base/jdk.internal.reflect.DelegatingMethodAccessorImpl.invoke(DelegatingMethodAccessorImpl.java:43)
at java.base/java.lang.reflect.Method.invoke(Method.java:566)
at org.apache.maven.surefire.util.ReflectionUtils.invokeMethodWithArray2(ReflectionUtils.java:186)
at org.apache.maven.surefire.booter.ProviderFactory$ProviderProxy.invoke(ProviderFactory.java:161)
at org.apache.maven.surefire.booter.ProviderFactory.invokeProvider(ProviderFactory.java:84)
at org.apache.maven.plugin.surefire.InPluginVMSurefireStarter.runSuitesInProcess(InPluginVMSurefireStarter.java:87)
at org.apache.maven.plugin.surefire.AbstractSurefireMojo.executeProvider(AbstractSurefireMojo.java:1144)
at org.apache.maven.plugin.surefire.AbstractSurefireMojo.executeAfterPreconditionsChecked(AbstractSurefireMojo.java:1002)
at org.apache.maven.plugin.surefire.AbstractSurefireMojo.execute(AbstractSurefireMojo.java:848)
at org.apache.maven.plugin.DefaultBuildPluginManager.executeMojo(DefaultBuildPluginManager.java:137)
at org.apache.maven.lifecycle.internal.MojoExecutor.execute(MojoExecutor.java:210)
at org.apache.maven.lifecycle.internal.MojoExecutor.execute(MojoExecutor.java:156)
at org.apache.maven.lifecycle.internal.MojoExecutor.execute(MojoExecutor.java:148)
at org.apache.maven.lifecycle.internal.LifecycleModuleBuilder.buildProject(LifecycleModuleBuilder.java:117)
at org.apache.maven.lifecycle.internal.LifecycleModuleBuilder.buildProject(LifecycleModuleBuilder.java:81)
at org.apache.maven.lifecycle.internal.builder.singlethreaded.SingleThreadedBuilder.build(SingleThreadedBuilder.java:56)
at org.apache.maven.lifecycle.internal.LifecycleStarter.execute(LifecycleStarter.java:128)
at org.apache.maven.DefaultMaven.doExecute(DefaultMaven.java:305)
at org.apache.maven.DefaultMaven.doExecute(DefaultMaven.java:192)
at org.apache.maven.DefaultMaven.execute(DefaultMaven.java:105)
at org.apache.maven.cli.MavenCli.execute(MavenCli.java:957)
at org.apache.maven.cli.MavenCli.doMain(MavenCli.java:289)
at org.apache.maven.cli.MavenCli.main(MavenCli.java:193)
at java.base/jdk.internal.reflect.NativeMethodAccessorImpl.invoke0(Native Method)
at java.base/jdk.internal.reflect.NativeMethodAccessorImpl.invoke(NativeMethodAccessorImpl.java:62)
at java.base/jdk.internal.reflect.DelegatingMethodAccessorImpl.invoke(DelegatingMethodAccessorImpl.java:43)
at java.base/java.lang.reflect.Method.invoke(Method.java:566)
at org.codehaus.plexus.classworlds.launcher.Launcher.launchEnhanced(Launcher.java:282)
at org.codehaus.plexus.classworlds.launcher.Launcher.launch(Launcher.java:225)
at org.codehaus.plexus.classworlds.launcher.Launcher.mainWithExitCode(Launcher.java:406)
at org.codehaus.plexus.classworlds.launcher.Launcher.main(Launcher.java:347)
]]>
            </full-stacktrace>
          </exception> <!-- org.openqa.selenium.NoSuchElementException -->
          <reporter-output>
          </reporter-output>
        </test-method> <!-- SensorRulesUpdateTest -->
        <test-method is-config="true" signature="AfterTest()[pri:0, instance:Testv2.RulesTest@159ac15f]" started-at="2022-05-05T17:49:11 IST" name="AfterTest" finished-at="2022-05-05T17:49:11 IST" duration-ms="119" status="PASS">
          <reporter-output>
          </reporter-output>
        </test-method> <!-- AfterTest -->
      </class> <!-- Testv2.RulesTest -->
    </test> <!-- Rules -->
    <test started-at="2022-05-05T17:49:12 IST" name="DeviceList" finished-at="2022-05-05T17:53:31 IST" duration-ms="259012">
      <class name="Testv2.DeviceListTest">
        <test-method is-config="true" signature="BeforeTest()[pri:0, instance:Testv2.DeviceListTest@11826398]" started-at="2022-05-05T17:49:12 IST" name="BeforeTest" finished-at="2022-05-05T17:49:15 IST" duration-ms="3571" status="PASS">
          <reporter-output>
          </reporter-output>
        </test-method> <!-- BeforeTest -->
        <test-method signature="DeviceTabClickTest()[pri:1, instance:Testv2.DeviceListTest@11826398]" started-at="2022-05-05T17:49:15 IST" name="DeviceTabClickTest" finished-at="2022-05-05T17:49:41 IST" duration-ms="25519" status="PASS">
          <reporter-output>
          </reporter-output>
        </test-method> <!-- DeviceTabClickTest -->
        <test-method signature="UpdateDeviceTest()[pri:2, instance:Testv2.DeviceListTest@11826398]" started-at="2022-05-05T17:49:41 IST" name="UpdateDeviceTest" finished-at="2022-05-05T17:49:58 IST" duration-ms="17039" status="PASS">
          <reporter-output>
          </reporter-output>
        </test-method> <!-- UpdateDeviceTest -->
        <test-method signature="CreateDeviceTest()[pri:3, instance:Testv2.DeviceListTest@11826398]" started-at="2022-05-05T17:49:58 IST" name="CreateDeviceTest" finished-at="2022-05-05T17:50:40 IST" duration-ms="42377" status="PASS">
          <reporter-output>
          </reporter-output>
        </test-method> <!-- CreateDeviceTest -->
        <test-method signature="DeviceDelete()[pri:4, instance:Testv2.DeviceListTest@11826398]" started-at="2022-05-05T17:50:40 IST" name="DeviceDelete" finished-at="2022-05-05T17:51:28 IST" duration-ms="47404" status="PASS">
          <reporter-output>
          </reporter-output>
        </test-method> <!-- DeviceDelete -->
        <test-method signature="GroupCreationTest()[pri:5, instance:Testv2.DeviceListTest@11826398]" started-at="2022-05-05T17:51:28 IST" name="GroupCreationTest" finished-at="2022-05-05T17:52:07 IST" duration-ms="39861" status="PASS">
          <reporter-output>
          </reporter-output>
        </test-method> <!-- GroupCreationTest -->
        <test-method signature="GroupUpdateGroupNameTest()[pri:6, instance:Testv2.DeviceListTest@11826398]" started-at="2022-05-05T17:52:07 IST" name="GroupUpdateGroupNameTest" finished-at="2022-05-05T17:53:00 IST" duration-ms="52800" status="PASS">
          <reporter-output>
          </reporter-output>
        </test-method> <!-- GroupUpdateGroupNameTest -->
        <test-method signature="GroupDeleteGroupTest()[pri:7, instance:Testv2.DeviceListTest@11826398]" started-at="2022-05-05T17:53:00 IST" name="GroupDeleteGroupTest" finished-at="2022-05-05T17:53:31 IST" duration-ms="30316" status="PASS">
          <reporter-output>
          </reporter-output>
        </test-method> <!-- GroupDeleteGroupTest -->
        <test-method is-config="true" signature="AfterTest()[pri:0, instance:Testv2.DeviceListTest@11826398]" started-at="2022-05-05T17:53:31 IST" name="AfterTest" finished-at="2022-05-05T17:53:31 IST" duration-ms="119" status="PASS">
          <reporter-output>
          </reporter-output>
        </test-method> <!-- AfterTest -->
      </class> <!-- Testv2.DeviceListTest -->
    </test> <!-- DeviceList -->
  </suite> <!-- Suite -->
</testng-results>
